Library\Bee\artifacts\mvdfrm\Unity.VisualScripting.Core.Editor.ref.dll_EDC8690F57C5BDFD.mvfrm
Library\Bee\artifacts\mvdfrm\Unity.VisualScripting.Core.ref.dll_D75DF4EA1AFE54F4.mvfrm
Library\Bee\artifacts\mvdfrm\Unity.VisualScripting.Flow.Editor.ref.dll_6AF951BE66A4493E.mvfrm
Library\Bee\artifacts\mvdfrm\Unity.VisualScripting.Flow.ref.dll_1E6ED5409D07C9A3.mvfrm
Library\Bee\artifacts\mvdfrm\Unity.VisualScripting.State.ref.dll_D91762B7076BE462.mvfrm
Library\Bee\artifacts\mvdfrm\UnityEditor.TestRunner.ref.dll_193EC4CE382CBFB3.mvfrm
Library\Bee\artifacts\mvdfrm\UnityEditor.UI.ref.dll_4C98D3F7040CD4F5.mvfrm
Library\Bee\artifacts\mvdfrm\UnityEngine.TestRunner.ref.dll_E55D0F7C63F01D9E.mvfrm
Library\Bee\artifacts\mvdfrm\UnityEngine.UI.ref.dll_08FEAA520A2EFD60.mvfrm
Library\Bee\artifacts\mvdfrm\Unity.Plastic.Antlr3.Runtime.dll_AA7EA22C8FFC31B7.mvfrm
Library\Bee\artifacts\mvdfrm\Unity.Plastic.Newtonsoft.Json.dll_BAD443E95E45888E.mvfrm
Library\Bee\artifacts\mvdfrm\Unity.VisualScripting.IonicZip.dll_DD43F1B1A924E1E8.mvfrm
Library\Bee\artifacts\mvdfrm\Unity.VisualScripting.YamlDotNet.dll_69E842609CB3BF14.mvfrm
Library\Bee\artifacts\mvdfrm\Unity.VisualScripting.Antlr3.Runtime.dll_1B556941CD7CCF33.mvfrm
Library\Bee\artifacts\mvdfrm\UnityEditor.Graphs.dll_BAA52EDDB4D4E526.mvfrm
Library\Bee\artifacts\mvdfrm\UnityEditor.CoreModule.dll_4D0F4356C30A4EF4.mvfrm
Library\Bee\artifacts\mvdfrm\UnityEditor.DeviceSimulatorModule.dll_5024D545C4195D0D.mvfrm
Library\Bee\artifacts\mvdfrm\UnityEditor.DiagnosticsModule.dll_D482B25C2A0C041B.mvfrm
Library\Bee\artifacts\mvdfrm\UnityEditor.dll_80665EF196C9A861.mvfrm
Library\Bee\artifacts\mvdfrm\UnityEditor.GraphViewModule.dll_99E3F191AFB53292.mvfrm
Library\Bee\artifacts\mvdfrm\UnityEditor.PackageManagerUIModule.dll_FC11F3F6D3EB9350.mvfrm
Library\Bee\artifacts\mvdfrm\UnityEditor.QuickSearchModule.dll_5F92336982E30074.mvfrm
Library\Bee\artifacts\mvdfrm\UnityEditor.SceneTemplateModule.dll_303CFC5F3CBF9575.mvfrm
Library\Bee\artifacts\mvdfrm\UnityEditor.TextCoreFontEngineModule.dll_B48A0062880FBDF2.mvfrm
Library\Bee\artifacts\mvdfrm\UnityEditor.TextCoreTextEngineModule.dll_FC7236D417937710.mvfrm
Library\Bee\artifacts\mvdfrm\UnityEditor.UIBuilderModule.dll_EE6C9EAE226DABC6.mvfrm
Library\Bee\artifacts\mvdfrm\UnityEditor.UIElementsModule.dll_0FE7D7F87ABC81B0.mvfrm
Library\Bee\artifacts\mvdfrm\UnityEditor.UIElementsSamplesModule.dll_FD3FC3F33BAE4ABD.mvfrm
Library\Bee\artifacts\mvdfrm\UnityEditor.UIServiceModule.dll_275EB0110BA4FBE0.mvfrm
Library\Bee\artifacts\mvdfrm\UnityEditor.UnityConnectModule.dll_B868D9343FA277AA.mvfrm
Library\Bee\artifacts\mvdfrm\UnityEngine.AccessibilityModule.dll_62E267F63D35BD12.mvfrm
Library\Bee\artifacts\mvdfrm\UnityEngine.AIModule.dll_D496D9138FA1C6C8.mvfrm
Library\Bee\artifacts\mvdfrm\UnityEngine.AndroidJNIModule.dll_8E30C0CBC3DBF086.mvfrm
Library\Bee\artifacts\mvdfrm\UnityEngine.AnimationModule.dll_68696DBA8A120738.mvfrm
Library\Bee\artifacts\mvdfrm\UnityEngine.ARModule.dll_8E099E16ECBF2591.mvfrm
Library\Bee\artifacts\mvdfrm\UnityEngine.AssetBundleModule.dll_A37B665AE549B566.mvfrm
Library\Bee\artifacts\mvdfrm\UnityEngine.AudioModule.dll_7FC42B2328C2DA2A.mvfrm
Library\Bee\artifacts\mvdfrm\UnityEngine.ClothModule.dll_E6AC881E02DFB90E.mvfrm
Library\Bee\artifacts\mvdfrm\UnityEngine.ClusterInputModule.dll_38054E49F12A4A70.mvfrm
Library\Bee\artifacts\mvdfrm\UnityEngine.ClusterRendererModule.dll_55D197B733D46A91.mvfrm
Library\Bee\artifacts\mvdfrm\UnityEngine.CoreModule.dll_703016A96B0FBA1F.mvfrm
Library\Bee\artifacts\mvdfrm\UnityEngine.CrashReportingModule.dll_B4C3C54DA4165717.mvfrm
Library\Bee\artifacts\mvdfrm\UnityEngine.DirectorModule.dll_1F23296BA75A17FC.mvfrm
Library\Bee\artifacts\mvdfrm\UnityEngine.dll_B30AA5C9F53D3546.mvfrm
Library\Bee\artifacts\mvdfrm\UnityEngine.DSPGraphModule.dll_24748AD519BAE91D.mvfrm
Library\Bee\artifacts\mvdfrm\UnityEngine.GameCenterModule.dll_B87E0AE68A1CE177.mvfrm
Library\Bee\artifacts\mvdfrm\UnityEngine.GIModule.dll_6CD322212B50AEE2.mvfrm
Library\Bee\artifacts\mvdfrm\UnityEngine.GridModule.dll_4DA1329783645016.mvfrm
Library\Bee\artifacts\mvdfrm\UnityEngine.HotReloadModule.dll_E9B22BC0654522BA.mvfrm
Library\Bee\artifacts\mvdfrm\UnityEngine.ImageConversionModule.dll_C1C39567B5F92285.mvfrm
Library\Bee\artifacts\mvdfrm\UnityEngine.IMGUIModule.dll_B823CA89EEF46E0B.mvfrm
Library\Bee\artifacts\mvdfrm\UnityEngine.InputLegacyModule.dll_34C081797D3B6B57.mvfrm
Library\Bee\artifacts\mvdfrm\UnityEngine.InputModule.dll_E639F2D39EFAFECE.mvfrm
Library\Bee\artifacts\mvdfrm\UnityEngine.JSONSerializeModule.dll_C2F9F1323C711D9C.mvfrm
Library\Bee\artifacts\mvdfrm\UnityEngine.LocalizationModule.dll_7652189C88A63D69.mvfrm
Library\Bee\artifacts\mvdfrm\UnityEngine.NVIDIAModule.dll_79C6E9DFFFAFF86B.mvfrm
Library\Bee\artifacts\mvdfrm\UnityEngine.ParticleSystemModule.dll_07D60E9A1227E2A5.mvfrm
Library\Bee\artifacts\mvdfrm\UnityEngine.PerformanceReportingModule.dll_0C0B3147281B2DDE.mvfrm
Library\Bee\artifacts\mvdfrm\UnityEngine.Physics2DModule.dll_B50F5DAB2B0EFECD.mvfrm
Library\Bee\artifacts\mvdfrm\UnityEngine.PhysicsModule.dll_053B7B2EC7F7CE3B.mvfrm
Library\Bee\artifacts\mvdfrm\UnityEngine.ProfilerModule.dll_516962A240B39F09.mvfrm
Library\Bee\artifacts\mvdfrm\UnityEngine.RuntimeInitializeOnLoadManagerInitializerModule.dll_937E4824F3018996.mvfrm
Library\Bee\artifacts\mvdfrm\UnityEngine.ScreenCaptureModule.dll_DCE19EB750DD49FE.mvfrm
Library\Bee\artifacts\mvdfrm\UnityEngine.SharedInternalsModule.dll_45D4D43D2D271DD5.mvfrm
Library\Bee\artifacts\mvdfrm\UnityEngine.SpriteMaskModule.dll_A1AA7D76AB8C76F1.mvfrm
Library\Bee\artifacts\mvdfrm\UnityEngine.SpriteShapeModule.dll_BCDC93B59AEBED70.mvfrm
Library\Bee\artifacts\mvdfrm\UnityEngine.StreamingModule.dll_1CFE5B0AD999BE76.mvfrm
Library\Bee\artifacts\mvdfrm\UnityEngine.SubstanceModule.dll_F9A96F5424ECBC84.mvfrm
Library\Bee\artifacts\mvdfrm\UnityEngine.SubsystemsModule.dll_0C57E3D879D45F04.mvfrm
Library\Bee\artifacts\mvdfrm\UnityEngine.TerrainModule.dll_1F81F69D9DB61729.mvfrm
Library\Bee\artifacts\mvdfrm\UnityEngine.TerrainPhysicsModule.dll_0850B76D2B6ADD32.mvfrm
Library\Bee\artifacts\mvdfrm\UnityEngine.TextCoreFontEngineModule.dll_32E97BB59B0D7CBD.mvfrm
Library\Bee\artifacts\mvdfrm\UnityEngine.TextCoreTextEngineModule.dll_7AD1B2272A9135DB.mvfrm
Library\Bee\artifacts\mvdfrm\UnityEngine.TextRenderingModule.dll_062110C20814C9F3.mvfrm
Library\Bee\artifacts\mvdfrm\UnityEngine.TilemapModule.dll_BE7E5E1EB572F832.mvfrm
Library\Bee\artifacts\mvdfrm\UnityEngine.TLSModule.dll_16BB83FEEF67984F.mvfrm
Library\Bee\artifacts\mvdfrm\UnityEngine.UaaLAnalyticsModule.dll_50CC4091E225B523.mvfrm
Library\Bee\artifacts\mvdfrm\UnityEngine.UIElementsModule.dll_109645407D009AFB.mvfrm
Library\Bee\artifacts\mvdfrm\UnityEngine.UIElementsNativeModule.dll_468BA88C45640372.mvfrm
Library\Bee\artifacts\mvdfrm\UnityEngine.UIModule.dll_D00A7740EBE8CC74.mvfrm
Library\Bee\artifacts\mvdfrm\UnityEngine.UmbraModule.dll_FA98D73BB5E9859D.mvfrm
Library\Bee\artifacts\mvdfrm\UnityEngine.UNETModule.dll_02D65E92B81EAF98.mvfrm
Library\Bee\artifacts\mvdfrm\UnityEngine.UnityAnalyticsModule.dll_27757F63BE4F34A1.mvfrm
Library\Bee\artifacts\mvdfrm\UnityEngine.UnityConnectModule.dll_A5C85D433A2A7855.mvfrm
Library\Bee\artifacts\mvdfrm\UnityEngine.UnityCurlModule.dll_9B860EEBFA25F925.mvfrm
Library\Bee\artifacts\mvdfrm\UnityEngine.UnityTestProtocolModule.dll_B90279E595A9A013.mvfrm
Library\Bee\artifacts\mvdfrm\UnityEngine.UnityWebRequestAssetBundleModule.dll_0AF91C38ECB86832.mvfrm
Library\Bee\artifacts\mvdfrm\UnityEngine.UnityWebRequestAudioModule.dll_84078525AE85F876.mvfrm
Library\Bee\artifacts\mvdfrm\UnityEngine.UnityWebRequestModule.dll_D3629D11C0EDBD04.mvfrm
Library\Bee\artifacts\mvdfrm\UnityEngine.UnityWebRequestTextureModule.dll_2F50CCF57795D90B.mvfrm
Library\Bee\artifacts\mvdfrm\UnityEngine.UnityWebRequestWWWModule.dll_4593F7831A50F247.mvfrm
Library\Bee\artifacts\mvdfrm\UnityEngine.VehiclesModule.dll_96E622EB2183E797.mvfrm
Library\Bee\artifacts\mvdfrm\UnityEngine.VFXModule.dll_979A1C6DC5D501BC.mvfrm
Library\Bee\artifacts\mvdfrm\UnityEngine.VideoModule.dll_A4CDAF8DEB54F5CF.mvfrm
Library\Bee\artifacts\mvdfrm\UnityEngine.VirtualTexturingModule.dll_6B185CFB1E1283FD.mvfrm
Library\Bee\artifacts\mvdfrm\UnityEngine.VRModule.dll_22DC9DC68DA351EC.mvfrm
Library\Bee\artifacts\mvdfrm\UnityEngine.WindModule.dll_E67EF1D1FC463888.mvfrm
Library\Bee\artifacts\mvdfrm\UnityEngine.XRModule.dll_559B60CB16DD9F4A.mvfrm
Library\Bee\artifacts\mvdfrm\Unity.Android.Gradle.dll_4DC6170C488E12DC.mvfrm
Library\Bee\artifacts\mvdfrm\Unity.Android.Types.dll_CE363ED6D51F1920.mvfrm
Library\Bee\artifacts\mvdfrm\UnityEditor.Android.Extensions.dll_59C4BF857342209C.mvfrm
Library\Bee\artifacts\mvdfrm\UnityEditor.iOS.Extensions.Common.dll_2D17B9310065AAF9.mvfrm
Library\Bee\artifacts\mvdfrm\UnityEditor.iOS.Extensions.dll_41DC71866432C41C.mvfrm
Library\Bee\artifacts\mvdfrm\UnityEditor.iOS.Extensions.Xcode.dll_1820C371B0817763.mvfrm
Library\Bee\artifacts\mvdfrm\UnityEditor.LinuxStandalone.Extensions.dll_22A69D264769541C.mvfrm
Library\Bee\artifacts\mvdfrm\UnityEditor.UWP.Extensions.dll_90762C4881352217.mvfrm
Library\Bee\artifacts\mvdfrm\UnityEditor.WebGL.Extensions.dll_2D2E0FEB89CCC0FC.mvfrm
Library\Bee\artifacts\mvdfrm\UnityEditor.WindowsStandalone.Extensions.dll_F0F2152C192F65EC.mvfrm